{
  "name": "InvI18nString",
  "options": {
    "idInjection": true,
    "mysql": {
      "schema": "inventory",
      "table": "inv_i18n_string"
    }
  },
  "properties": {
    "id": {
      "type": "Number",
      "mysql": {
        "columnName": "id",
        "dataType": "int",
        "dataLength": null,
        "dataPrecision": 10,
        "dataScale": 0,
        "nullable": "N"
      }
    },
    "invI18nStringLocale": {
      "type": "String",
      "required": false,
      "length": 45,
      "precision": null,
      "scale": null,
      "mysql": {
        "columnName": "inv_i18n_string_locale",
        "dataType": "varchar",
        "dataLength": 45,
        "dataPrecision": null,
        "dataScale": null,
        "nullable": "Y"
      }
    },
    "invI18nStringValue": {
      "type": "String",
      "required": false,
      "length": 65535,
      "precision": null,
      "scale": null,
      "mysql": {
        "columnName": "inv_i18n_string_value",
        "dataType": "text",
        "dataLength": 65535,
        "dataPrecision": null,
        "dataScale": null,
        "nullable": "Y"
      }
    },
    "invI18nEntityInvI18nEntityId": {
      "type": "Number",
      "required": true,
      "length": null,
      "precision": 10,
      "scale": 0,
      "mysql": {
        "columnName": "inv_i18n_entity_inv_i18n_entity_id",
        "dataType": "int",
        "dataLength": null,
        "dataPrecision": 10,
        "dataScale": 0,
        "nullable": "N"
      }
    }
  }
}